FIFO/dump.vcd
$date
	Fri Jun 28 03:27:51 2024
$end

$version
	Synopsys VCS version U-2023.03-SP2_Full64
$end

$timescale
	1ns
$end

$comment Csum: 1 d1fc878c69987dba $end


$scope module fifo_tb $end
$var reg 1 ! rst_n $end
$var reg 1 " clk $end
$var reg 1 # wr_en $end
$var reg 1 $ rd_en $end
$var reg 8 % d_in [7:0] $end
$var reg 8 & d_out [7:0] $end
$var reg 1 ' full $end
$var reg 1 ( empty $end

$scope task rst_chk $end
$upscope $end


$scope task wr_chk $end
$upscope $end


$scope task rd_chk $end
$upscope $end


$scope begin unnamed$$_vcs_3 $end

$scope fork unnamed$$_vcs_0 $end

$scope begin unnamed$$_vcs_1 $end
$upscope $end


$scope begin unnamed$$_vcs_2 $end
$upscope $end

$upscope $end

$upscope $end


$scope module dut $end
$var wire 1 ! rst_n $end
$var wire 8 % d_in [7:0] $end
$var wire 1 # wr_en $end
$var wire 1 ) w_clk $end
$var wire 1 $ rd_en $end
$var wire 1 ) rd_clk $end
$var reg 8 & d_out [7:0] $end
$var wire 1 ' full $end
$var wire 1 ( empty $end
$var reg 4 * rd_ptr [3:0] $end
$var reg 4 + wr_ptr [3:0] $end
$var integer 32 , i $end
$upscope $end

$upscope $end

$enddefinitions $end

#0
$dumpvars
x(
x'
x$
x!
x#
0"
bxxxxxxxx %
bxxxxxxxx &
bxxxxxxxxxxxxxxxxxxxxxxxxxxxxxxxx ,
bxxxx *
bxxxx +
0)
$end
#5
1"
1)
#10
0"
0)
0!
0'
0(
#15
1"
1)
b00000000000000000000000000010000 ,
b0000 +
b0000 *
#20
0"
0)
1!
1(
#25
1"
1)
#30
0"
0)
1#
b01000001 %
#35
1"
1)
b0001 +
0(
#40
0"
0)
b11100110 %
#45
1"
1)
b0010 +
#50
0"
0)
b11100101 %
1$
b11110000 %
#55
1"
1)
b0011 +
b01000001 &
b0001 *
#60
0"
0)
b01111111 %
b11010100 %
#65
1"
1)
b0100 +
b11100110 &
b0010 *
#70
0"
0)
b00100010 %
0$
#75
1"
1)
b0101 +
#80
0"
0)
b10101001 %
#85
1"
1)
b0110 +
#90
0"
0)
b00100001 %
#95
1"
1)
b0111 +
#100
0"
0)
b10000110 %
#105
1"
1)
b1000 +
#110
0"
0)
b01101101 %
#115
1"
1)
b1001 +
#120
0"
0)
b01010011 %
#125
1"
1)
b1010 +
#130
0"
0)
b10100000 %
#135
1"
1)
b1011 +
#140
0"
0)
b11001001 %
#145
1"
1)
b1100 +
#150
0"
0)
b00101100 %
#155
1"
1)
b1101 +
#160
0"
0)
b11011111 %
#165
1"
1)
b1110 +
#170
0"
0)
b10101011 %
#175
1"
1)
b1111 +
#180
0"
0)
b01100100 %
#185
1"
1)
b0000 +
#190
0"
0)
b00010110 %
#195
1"
1)
b0001 +
1'
#200
0"
0)
b01000111 %
#205
1"
1)
#210
0"
0)
b00000111 %
#215
1"
1)
#220
0"
0)
b01011110 %
#225
1"
1)
#230
0"
0)
b00000000 %
0#
